C:\Users\Miguel\OneDrive\Proyectos\otros\java\ws-rest\spring-server-swagger\src\main\java\io\swagger\model\ModelApiResponse.java
C:\Users\Miguel\OneDrive\Proyectos\otros\java\ws-rest\spring-server-swagger\src\main\java\io\swagger\api\StoreApi.java
C:\Users\Miguel\OneDrive\Proyectos\otros\java\ws-rest\spring-server-swagger\src\main\java\io\swagger\configuration\HomeController.java
C:\Users\Miguel\OneDrive\Proyectos\otros\java\ws-rest\spring-server-swagger\src\main\java\io\swagger\api\NotFoundException.java
C:\Users\Miguel\OneDrive\Proyectos\otros\java\ws-rest\spring-server-swagger\src\main\java\io\swagger\api\PetApi.java
C:\Users\Miguel\OneDrive\Proyectos\otros\java\ws-rest\spring-server-swagger\src\main\java\io\swagger\model\User.java
C:\Users\Miguel\OneDrive\Proyectos\otros\java\ws-rest\spring-server-swagger\src\main\java\io\swagger\api\ApiException.java
C:\Users\Miguel\OneDrive\Proyectos\otros\java\ws-rest\spring-server-swagger\src\main\java\io\swagger\RFC3339DateFormat.java
C:\Users\Miguel\OneDrive\Proyectos\otros\java\ws-rest\spring-server-swagger\src\main\java\io\swagger\api\ApiOriginFilter.java
C:\Users\Miguel\OneDrive\Proyectos\otros\java\ws-rest\spring-server-swagger\src\main\java\io\swagger\api\UserApiController.java
C:\Users\Miguel\OneDrive\Proyectos\otros\java\ws-rest\spring-server-swagger\src\main\java\io\swagger\configuration\SwaggerDocumentationConfig.java
C:\Users\Miguel\OneDrive\Proyectos\otros\java\ws-rest\spring-server-swagger\src\main\java\io\swagger\api\StoreApiController.java
C:\Users\Miguel\OneDrive\Proyectos\otros\java\ws-rest\spring-server-swagger\src\main\java\io\swagger\model\Tag.java
C:\Users\Miguel\OneDrive\Proyectos\otros\java\ws-rest\spring-server-swagger\src\main\java\io\swagger\model\Pet.java
C:\Users\Miguel\OneDrive\Proyectos\otros\java\ws-rest\spring-server-swagger\src\main\java\io\swagger\api\ApiResponseMessage.java
C:\Users\Miguel\OneDrive\Proyectos\otros\java\ws-rest\spring-server-swagger\src\main\java\io\swagger\model\Category.java
C:\Users\Miguel\OneDrive\Proyectos\otros\java\ws-rest\spring-server-swagger\src\main\java\io\swagger\api\UserApi.java
C:\Users\Miguel\OneDrive\Proyectos\otros\java\ws-rest\spring-server-swagger\src\main\java\io\swagger\Swagger2SpringBoot.java
C:\Users\Miguel\OneDrive\Proyectos\otros\java\ws-rest\spring-server-swagger\src\main\java\io\swagger\api\PetApiController.java
C:\Users\Miguel\OneDrive\Proyectos\otros\java\ws-rest\spring-server-swagger\src\main\java\io\swagger\model\Order.java
